<?xml version="1.0" encoding="utf-8"?>
<!-- Generator: Adobe Illustrator 16.0.0, SVG Export Plug-In . SVG Version: 6.00 Build 0)  -->
<!DOCTYPE svg PUBLIC "-//W3C//DTD SVG 1.0//EN" "http://www.w3.org/TR/2001/REC-SVG-20010904/DTD/svg10.dtd">
<svg version="1.0" id="Calque_1" xmlns="http://www.w3.org/2000/svg" xmlns:xlink="http://www.w3.org/1999/xlink" x="0px" y="0px"
	 width="172.437px" height="243.875px" viewBox="0 0 172.437 243.875" style="enable-background:new 0 0 172.437 243.875;"
	 xml:space="preserve">
<g>
	<rect style="fill:#FF198C;" width="172.437" height="243.875"/>
	<polygon points="39.291,172.636 63.913,172.636 63.913,114.266 112.725,172.636 133.146,172.636 133.146,71.25 108.523,71.25 
		108.523,129.619 59.714,71.25 39.291,71.25 	"/>
</g>
</svg>
