<?xml version="1.0" encoding="utf-8"?>
<!-- Generator: Adobe Illustrator 16.0.0, SVG Export Plug-In . SVG Version: 6.00 Build 0)  -->
<!DOCTYPE svg PUBLIC "-//W3C//DTD SVG 1.0//EN" "http://www.w3.org/TR/2001/REC-SVG-20010904/DTD/svg10.dtd">
<svg version="1.0" id="Calque_1" xmlns="http://www.w3.org/2000/svg" xmlns:xlink="http://www.w3.org/1999/xlink" x="0px" y="0px"
	 width="172.438px" height="243.875px" viewBox="0 0 172.438 243.875" style="enable-background:new 0 0 172.438 243.875;"
	 xml:space="preserve">
<g>
	<rect y="-0.001" style="fill:#FF198C;" width="172.438" height="243.877"/>
	<path d="M67.574,115.95l0.001-23.175l23.028,0.001c8.546,0,12.021,4.924,12.021,11.586c0,3.187-0.724,5.794-2.463,7.822
		l-5.938-11.154l-21.146,11.443l1.882,3.476L67.574,115.95z M130.579,169.54l-18.686-35.195
		c9.562-6.229,15.354-17.091,15.354-29.982c0.001-20.855-15.208-36.208-36.645-36.21l-47.65,0.001v101.386h24.623v-28.967
		l20.276-0.001l15.353,29.112L130.579,169.54z"/>
</g>
</svg>
