<?xml version="1.0" encoding="utf-8"?>
<!-- Generator: Adobe Illustrator 16.0.0, SVG Export Plug-In . SVG Version: 6.00 Build 0)  -->
<!DOCTYPE svg PUBLIC "-//W3C//DTD SVG 1.0//EN" "http://www.w3.org/TR/2001/REC-SVG-20010904/DTD/svg10.dtd">
<svg version="1.0" id="Calque_1" xmlns="http://www.w3.org/2000/svg" xmlns:xlink="http://www.w3.org/1999/xlink" x="0px" y="0px"
	 width="484.212px" height="103.869px" viewBox="0 0 484.212 103.869" style="enable-background:new 0 0 484.212 103.869;"
	 xml:space="preserve">
<g>
	<path d="M0,0v103.869h484.212V0H0z M55.576,55.189v8.996h-5.951v-8.996L39.51,39.682h7.141l5.951,9.137l5.95-9.137h7.141
		L55.576,55.189z M85.676,45.633H75.35v3.326h10.326v5.949H75.35v3.326h10.326v5.951H69.399V39.682h16.276V45.633z M106.116,64.186
		h-5.461L89.104,39.682h6.581l7.7,16.312l7.7-16.312h6.582L106.116,64.186z M131.07,58.234h0.245v-2.59h-3.99v-5.951h9.94v13.582
		c-2.1,0.559-3.955,0.91-6.16,0.91c-7.525,0-12.496-5.076-12.496-12.182c0-7.141,4.971-12.322,12.461-12.322
		c3.15,0,6.441,1.016,8.855,3.291l-2.904,5.426c-1.855-1.961-3.886-2.766-5.986-2.766c-3.955,0-6.476,2.625-6.476,6.301
		S127.08,58.234,131.07,58.234z M160.611,45.633h-10.326v3.326h10.326v5.949h-10.326v3.326h10.326v5.951h-16.277V39.682h16.277
		V45.633z M189.486,64.186h-4.936l-11.797-14.107v14.107h-5.95V39.682h4.936l11.796,14.107V39.682h5.951V64.186z M216.959,49.518
		c3.991,1.33,6.196,3.502,6.196,7.281c0,4.586-3.255,7.387-8.226,7.387c-4.586,0-7.701-2.381-8.471-6.406l5.355-2.135
		c0.314,1.68,1.225,2.59,3.15,2.59c1.4,0,2.24-0.385,2.24-1.33c0-1.016-0.701-1.365-4.306-2.555
		c-3.991-1.33-6.196-3.502-6.196-7.281c0-4.586,3.256-7.387,8.227-7.387c4.585,0,7.701,2.381,8.471,6.406l-5.355,2.135
		c-0.315-1.68-1.225-2.59-3.15-2.59c-1.4,0-2.24,0.385-2.24,1.33C212.654,47.979,213.354,48.328,216.959,49.518z M246.745,64.186
		l-1.575-3.396h-11.691l-1.575,3.396h-6.546l11.307-24.504h5.32l11.307,24.504H246.745z M287.381,64.186h-5.95V52.213l-6.791,11.973
		h-4.761l-6.79-11.973v11.973h-5.951V39.682h5.671l9.451,16.697l9.45-16.697h5.671V64.186z M312.055,57.254
		c0,3.885-2.485,6.932-7.631,6.932h-10.536V39.682h10.536c5.146,0,7.631,3.047,7.631,6.932c0,2.73-1.226,4.516-3.08,5.32
		C310.899,52.773,312.055,54.629,312.055,57.254z M328.294,64.186c-7.001,0-12.252-5.252-12.252-12.252s5.251-12.252,12.252-12.252
		c7,0,12.251,5.252,12.251,12.252S335.294,64.186,328.294,64.186z M360.109,64.221l-3.71-7.037h-4.9v7.002h-5.951V39.682h11.517
		c5.181,0,8.855,3.711,8.855,8.752c0,3.115-1.4,5.74-3.71,7.246l4.516,8.506L360.109,64.221z M380.619,49.518
		c3.99,1.33,6.195,3.502,6.195,7.281c0,4.586-3.255,7.387-8.226,7.387c-4.586,0-7.701-2.381-8.471-6.406l5.355-2.135
		c0.314,1.68,1.225,2.59,3.15,2.59c1.399,0,2.24-0.385,2.24-1.33c0-1.016-0.7-1.365-4.306-2.555c-3.99-1.33-6.196-3.502-6.196-7.281
		c0-4.586,3.256-7.387,8.227-7.387c4.585,0,7.7,2.381,8.471,6.406l-5.355,2.135c-0.315-1.68-1.226-2.59-3.15-2.59
		c-1.4,0-2.24,0.385-2.24,1.33C376.313,47.979,377.014,48.328,380.619,49.518z M408.374,64.186l-7.387-9.557l-2.695,2.73v6.826
		h-5.95V39.682h5.95v9.207l9.206-9.207h8.366l-10.676,10.746l10.746,13.758H408.374z M434.413,55.189v8.996h-5.95v-8.996
		l-10.116-15.508h7.141l5.95,9.137l5.951-9.137h7.141L434.413,55.189z"/>
	<path d="M304.249,45.633h-4.41v3.326h4.305c1.19,0,1.961-0.631,1.961-1.717C306.104,46.332,305.544,45.633,304.249,45.633z"/>
	<polygon points="236.244,54.838 242.404,54.838 239.324,48.152 	"/>
	<path d="M357.064,45.633h-5.565v5.602h1.785l-0.455-0.842l5.11-2.764l1.435,2.695c0.42-0.49,0.596-1.121,0.596-1.891
		C359.97,46.822,359.129,45.633,357.064,45.633z"/>
	<path d="M304.144,54.908h-4.305v3.326h4.41c1.295,0,1.855-0.666,1.855-1.609C306.104,55.504,305.334,54.908,304.144,54.908z"/>
	<path d="M328.294,45.633c-3.711,0-6.301,2.59-6.301,6.301s2.59,6.301,6.301,6.301c3.71,0,6.301-2.59,6.301-6.301
		S332.004,45.633,328.294,45.633z"/>
</g>
</svg>
