<?xml version="1.0" encoding="utf-8"?>
<!-- Generator: Adobe Illustrator 16.0.0, SVG Export Plug-In . SVG Version: 6.00 Build 0)  -->
<!DOCTYPE svg PUBLIC "-//W3C//DTD SVG 1.0//EN" "http://www.w3.org/TR/2001/REC-SVG-20010904/DTD/svg10.dtd">
<svg version="1.0" id="Calque_1" xmlns="http://www.w3.org/2000/svg" xmlns:xlink="http://www.w3.org/1999/xlink" x="0px" y="0px"
	 width="343.674px" height="103.869px" viewBox="0 0 343.674 103.869" style="enable-background:new 0 0 343.674 103.869;"
	 xml:space="preserve">
<g>
	<path d="M293.505,45.632h-5.565v5.601h1.785l-0.455-0.84l5.11-2.765l1.435,2.695c0.42-0.49,0.596-1.12,0.596-1.89
		C296.41,46.822,295.569,45.632,293.505,45.632z"/>
	<path d="M73.636,45.632c-3.71,0-6.3,2.59-6.3,6.3c0,3.71,2.59,6.301,6.3,6.301c3.711,0,6.301-2.59,6.301-6.301
		C79.937,48.223,77.347,45.632,73.636,45.632z"/>
	<path d="M0,0v103.87h343.674V0H0z M56.627,55.328c0,6.301-4.061,8.856-8.401,8.856c-5.11,0-8.19-3.57-8.19-7.946l5.355-2.345
		c0,2.87,0.945,4.34,2.905,4.34c1.4,0,2.381-0.735,2.381-2.975V39.682h5.95V55.328z M73.636,64.184c-7,0-12.25-5.25-12.25-12.251
		c0-7,5.25-12.251,12.25-12.251c7.002,0,12.252,5.25,12.252,12.251C85.888,58.934,80.638,64.184,73.636,64.184z M111.577,64.184
		h-5.951v-9.276h-8.785v9.276H90.89V39.682h5.951v9.276h8.785v-9.276h5.951V64.184z M140.731,64.184h-4.936L124,50.078v14.106h-5.95
		V39.682h4.936l11.796,14.106V39.682h5.95V64.184z M175.136,45.632h-10.325v3.325h10.325v5.951h-10.325v9.276h-5.951V39.682h16.276
		V45.632z M196.835,45.632H186.51v3.325h10.325v5.951H186.51v3.325h10.325v5.951h-16.276V39.682h16.276V45.632z M219.061,64.184
		l-7.387-9.556l-2.695,2.73v6.826h-5.95V39.682h5.95v9.206l9.206-9.206h8.366l-10.676,10.746l10.746,13.756H219.061z
		 M253.011,64.184h-4.936l-11.796-14.106v14.106h-5.951V39.682h4.936l11.796,14.106V39.682h5.951V64.184z M275.795,45.632h-10.326
		v3.325h10.326v5.951h-10.326v3.325h10.326v5.951h-16.276V39.682h16.276V45.632z M296.55,64.219l-3.71-7.036h-4.9v7h-5.951V39.682
		h11.517c5.181,0,8.855,3.71,8.855,8.751c0,3.115-1.4,5.74-3.71,7.246l4.516,8.506L296.55,64.219z"/>
</g>
</svg>
