<?xml version="1.0" encoding="utf-8"?>
<!-- Generator: Adobe Illustrator 16.0.0, SVG Export Plug-In . SVG Version: 6.00 Build 0)  -->
<!DOCTYPE svg PUBLIC "-//W3C//DTD SVG 1.0//EN" "http://www.w3.org/TR/2001/REC-SVG-20010904/DTD/svg10.dtd">
<svg version="1.0" id="Calque_1" xmlns="http://www.w3.org/2000/svg" xmlns:xlink="http://www.w3.org/1999/xlink" x="0px" y="0px"
	 width="372.252px" height="103.869px" viewBox="0 0 372.252 103.869" style="enable-background:new 0 0 372.252 103.869;"
	 xml:space="preserve">
<g>
	<polygon points="101.04,54.838 107.201,54.838 104.121,48.152 	"/>
	<path d="M131.142,45.632h-3.256v12.601h3.256c3.57,0,5.915-2.73,5.915-6.301C137.057,48.362,134.712,45.632,131.142,45.632z"/>
	<path d="M196.731,45.632c-3.711,0-6.301,2.59-6.301,6.3s2.59,6.301,6.301,6.301c3.71,0,6.3-2.59,6.3-6.301
		S200.441,45.632,196.731,45.632z"/>
	<path d="M77.486,45.632h-5.565v5.601h1.785l-0.455-0.84l5.11-2.765l1.436,2.695c0.42-0.49,0.595-1.12,0.595-1.89
		C80.392,46.822,79.552,45.632,77.486,45.632z"/>
	<path d="M169.011,45.632h-3.256v12.601h3.256c3.57,0,5.916-2.73,5.916-6.301C174.927,48.362,172.581,45.632,169.011,45.632z"/>
	<path d="M52.497,45.632h-4.411v3.325h4.306c1.189,0,1.96-0.63,1.96-1.715C54.352,46.332,53.792,45.632,52.497,45.632z"/>
	<path d="M0,0v103.87h372.252V0H0z M60.302,57.253c0,3.885-2.484,6.931-7.631,6.931H42.136V39.682h10.535
		c5.146,0,7.631,3.045,7.631,6.931c0,2.73-1.225,4.516-3.08,5.32C59.147,52.773,60.302,54.628,60.302,57.253z M80.532,64.219
		l-3.711-7.036h-4.9v7.001H65.97V39.682h11.517c5.181,0,8.856,3.71,8.856,8.751c0,3.115-1.4,5.74-3.711,7.246l4.516,8.506
		L80.532,64.219z M111.542,64.184l-1.575-3.396H98.275L96.7,64.184h-6.546l11.307-24.502h5.32l11.306,24.502H111.542z
		 M131.142,64.184h-9.207V39.682h9.207c6.93,0,11.865,5.18,11.865,12.251S138.071,64.184,131.142,64.184z M169.011,64.184h-9.206
		V39.682h9.206c6.931,0,11.866,5.18,11.866,12.251S175.941,64.184,169.011,64.184z M196.731,64.184
		c-7.001,0-12.252-5.25-12.252-12.251c0-7,5.251-12.251,12.252-12.251c7,0,12.251,5.25,12.251,12.251
		C208.982,58.934,203.731,64.184,196.731,64.184z M244.229,64.184h-5.951l-6.266-15.927l-6.266,15.927h-5.95l-9.347-24.502h6.371
		l6.021,15.892l6.195-15.892h5.951l6.195,15.892l6.021-15.892h6.371L244.229,64.184z M280.242,64.184h-4.936L263.51,50.078v14.106
		h-5.95V39.682h4.936l11.796,14.106V39.682h5.951V64.184z M302.99,45.632h-10.326v3.325h10.326v5.951h-10.326v3.325h10.326v5.951
		h-16.276V39.682h16.276V45.632z M322.485,55.188v8.996h-5.95v-8.996l-10.116-15.506h7.141l5.95,9.136l5.951-9.136h7.141
		L322.485,55.188z"/>
	<path d="M52.392,54.908h-4.306v3.325h4.411c1.295,0,1.854-0.665,1.854-1.61C54.352,55.503,53.581,54.908,52.392,54.908z"/>
</g>
</svg>
