<?xml version="1.0" encoding="utf-8"?>
<!-- Generator: Adobe Illustrator 16.0.0, SVG Export Plug-In . SVG Version: 6.00 Build 0)  -->
<!DOCTYPE svg PUBLIC "-//W3C//DTD SVG 1.0//EN" "http://www.w3.org/TR/2001/REC-SVG-20010904/DTD/svg10.dtd">
<svg version="1.0" id="Calque_1" xmlns="http://www.w3.org/2000/svg" xmlns:xlink="http://www.w3.org/1999/xlink" x="0px" y="0px"
	 width="440.403px" height="103.869px" viewBox="0 0 440.403 103.869" style="enable-background:new 0 0 440.403 103.869;"
	 xml:space="preserve">
<g>
	<path d="M131.981,45.632h-3.256v12.602h3.256c3.57,0,5.916-2.73,5.916-6.301S135.552,45.632,131.981,45.632z"/>
	<polygon points="101.882,54.839 108.042,54.839 104.962,48.153 	"/>
	<path d="M312.581,45.632h-5.565v5.602h1.785l-0.455-0.84l5.11-2.766l1.435,2.695c0.42-0.49,0.596-1.121,0.596-1.891
		C315.486,46.821,314.646,45.632,312.581,45.632z"/>
	<path d="M390.175,45.632h-5.565v5.602h1.785l-0.455-0.84l5.11-2.766l1.435,2.695c0.42-0.49,0.596-1.121,0.596-1.891
		C393.08,46.821,392.239,45.632,390.175,45.632z"/>
	<path d="M221.932,45.632h-5.566v5.602h1.786l-0.455-0.84l5.11-2.766l1.435,2.695c0.42-0.49,0.596-1.121,0.596-1.891
		C224.837,46.821,223.996,45.632,221.932,45.632z"/>
	<path d="M0,0v103.869h440.403V0H0z M56.522,64.185h-5.461L39.511,39.681h6.58l7.701,16.312l7.701-16.312h6.58L56.522,64.185z
		 M88.268,64.185H71.78V39.681h5.951v18.553h10.536V64.185z M112.383,64.185l-1.575-3.396H99.116l-1.575,3.396h-6.546l11.307-24.504
		h5.32l11.307,24.504H112.383z M131.981,64.185h-9.206V39.681h9.206c6.931,0,11.866,5.182,11.866,12.252
		S138.912,64.185,131.981,64.185z M154.905,64.185h-5.95V39.681h5.95V64.185z M191.554,64.185h-5.951V52.212l-6.791,11.973h-4.76
		l-6.791-11.973v11.973h-5.951V39.681h5.671l9.451,16.697l9.451-16.697h5.671V64.185z M204.011,64.185h-5.951V39.681h5.951V64.185z
		 M224.977,64.22l-3.71-7.037h-4.901v7.002h-5.95V39.681h11.517c5.181,0,8.855,3.711,8.855,8.752c0,3.115-1.4,5.74-3.71,7.246
		l4.516,8.506L224.977,64.22z M268.482,45.632h-8.366v18.553h-5.95V45.632h-8.401v-5.951h22.718V45.632z M295.047,52.772
		c0,6.932-4.936,11.412-11.516,11.412c-6.616,0-11.552-4.48-11.552-11.412V39.681h5.951v13.092c0,3.605,2.38,5.461,5.601,5.461
		c3.185,0,5.565-1.855,5.565-5.461V39.681h5.95V52.772z M315.626,64.22l-3.71-7.037h-4.9v7.002h-5.951V39.681h11.517
		c5.181,0,8.855,3.711,8.855,8.752c0,3.115-1.4,5.74-3.71,7.246l4.516,8.506L315.626,64.22z M349.682,64.185h-4.936l-11.797-14.107
		v14.107h-5.95V39.681h4.936l11.796,14.107V39.681h5.951V64.185z M372.465,45.632h-10.326v3.326h10.326v5.949h-10.326v3.326h10.326
		v5.951h-16.276V39.681h16.276V45.632z M393.22,64.22l-3.71-7.037h-4.9v7.002h-5.951V39.681h11.517c5.181,0,8.855,3.711,8.855,8.752
		c0,3.115-1.4,5.74-3.71,7.246l4.516,8.506L393.22,64.22z"/>
</g>
</svg>
